ID	Name	Designator	Footprint	Quantity	Manufacturer Part	Manufacturer	Supplier	Supplier Part	Price
"1"	"排母2.54-1*2P 贴片"	"BAT"	"排母2.54-1X2P 贴片封装"	"1"	"2.54-1*2P"	"HeZo"	"LCSC"	"C52709"	"0.5424"
"2"	"X6521WVS-2*03H-C60D74"	"OUT"	"HDR-SMD_6P-P2.54-V-M-R2-C5-S7.4"	"1"	"X6521WVS-2x03H-C60D74"	"XKB Connectivity(中国星坤)"	"LCSC"	"C780054"	"0.692"
"3"	"降压模块17.5*12"	"DC-DC1"	"Z世达电子降压模块17.5*12"	"1"	""	""	"世达"	""	""
"4"	"排母2.54-1*3P 贴片 COPY"	"DIR,SW,TURN"	"排母2.54-1X3P 贴片封装"	"3"	"2.54-1*3P"	"HeZo"	"LCSC"	"C52709"	"0.5424"
"5"	"排母2.54-1*3P 贴片"	"LIGHT"	"排母2.54-1X3P 贴片封装"	"1"	"2.54-1*3P"	"HeZo"	"LCSC"	"C52709"	"0.5424"
"6"	"XH-4PWB"	"M"	"CONN-SMD_4P-P2.50_DEALON_XH-4PWB"	"1"	"XH-4PWB"	"DEALON(德艺隆)"	"LCSC"	"C2905026"	"0.4547"
"7"	"PAD-2.0-1X3P"	"P1,P2"	"HDR-2.0-Z-1X3P"	"2"	""	""	"EasyEDA"	"E3411"	""
"8"	"390Ω"	"R1"	"R0603"	"1"	"0603WAF3900T5E"	"UNI-ROYAL(厚声)"	"LCSC"	"C23151"	"0.0062"
"9"	"19-217/GHC-YR1S2/3T"	"VCC"	"LED0603-RD"	"1"	"19-217/GHC-YR1S2/3T"	"EVERLIGHT(亿光)"	"LCSC"	"C72043"	"0.1678"
"10"	"19-213/Y2C-CQ2R2L/3T(CY)"	"L0"	"LED0603-RD-YELLOW"	"1"	"19-213/Y2C-CQ2R2L/3T(CY)"	"EVERLIGHT(亿光)"	"LCSC"	"C72038"	"0.139"
"11"	"XC6206P332MR"	"DC-3"	"SOT-23-3_L2.9-W1.6-P1.90-LS2.8-BR"	"1"	"XC6206P332MR"	"TOREX(特瑞仕)"	"LCSC"	"C5446"	"0.6713"
"12"	"18pF"	"C10,C11"	"C0402"	"2"	"0402CG180J500NT"	"FH(风华)"	"LCSC"	"C1549"	"0.0057"
"13"	"100uF"	"C13,C14,C15,C16,C17,C14_100"	"C1206"	"6"	"CL31A107MQHNNNE"	"SAMSUNG(三星)"	"LCSC"	"C15008"	"0.3911"
"14"	"100nF"	"C1,C2,C3,C4,C5,C6,C7,C8,C9"	"C0603"	"9"	"CC0603KRX7R9BB104"	"YAGEO(国巨)"	"LCSC"	"C14663"	"0.0144"
"15"	"10uF"	"C3-1U,C4-1U"	"C0805"	"2"	"CL21A106KAYNNNE"	"SAMSUNG(三星)"	"LCSC"	"C15850"	"0.071"
"16"	"22pF"	"C5-2P,C6-2P"	"C0402"	"2"	"0402CG220J500NT"	"FH(风华)"	"LCSC"	"C1555"	"0.0059"
"17"	"STM32F103C8T6"	"C8T6"	"LQFP-48_L7.0-W7.0-P0.50-LS9.0-BL"	"1"	"STM32F103C8T6"	"ST(意法半导体)"	"LCSC"	"C8734"	"9.59"
"18"	"10uF"	"C12"	"CAP-SMD_L3.2-W1.6-RD-C7171"	"1"	"TAJA106K016RNJ"	"Kyocera AVX"	"LCSC"	"C7171"	"0.6204"
"19"	"调试串口"	"DEBUG"	"HDR-TH_4P-P2.54-V-M"	"1"	"Z-21104110021001"	"Nextron(正凌)"	"LCSC"	"C152150"	"0.1718"
"20"	"GH125-S06DCA-00"	"DOWN"	"CONN-SMD_6P-P1.25_JUSHUO_GH125-S06DCA-00"	"1"	"GH125-S06DCA-00"	"JS(钜硕电子)"	"LCSC"	"C2886769"	"0.5656"
"21"	"10uH"	"L1,L2"	"L0603"	"2"	"SDFL1608S100KTF"	"Sunlord(顺络)"	"LCSC"	"C1035"	"0.0645"
"22"	"烧录口"	"LOAD"	"HDR-TH_4P-P2.54-V-M"	"1"	"Z-21104110021001"	"Nextron(正凌)"	"LCSC"	"C152150"	"0.1718"
"23"	"1MΩ"	"R1M,R3M,R4M,R5M"	"R0603"	"4"	"0603WAF1004T5E"	"UNI-ROYAL(厚声)"	"LCSC"	"C22935"	"0.0063"
"24"	"510Ω"	"R4_510_1,R4_510_2"	"R0603"	"2"	"0603WAF5100T5E"	"UNI-ROYAL(厚声)"	"LCSC"	"C23193"	"0.0062"
"25"	"TS-1187A-B-A-B"	"RESET"	"SW-SMD_4P-L5.1-W5.1-P3.70-LS6.5-TL-2"	"1"	"TS-1187A-B-A-B"	"XKB Connectivity(中国星坤)"	"LCSC"	"C318884"	"0.097"
"26"	"10kΩ"	"RN1,RN2"	"RES-ARRAY-SMD_0603-8P-L3.2-W1.6-BL"	"2"	"4D03WGJ0103T5E"	"UNI-ROYAL(厚声)"	"LCSC"	"C29718"	"0.0406"
"27"	"TB6612FNG,C,8,EL"	"TB6612"	"SSOP-24_L8.3-W5.6-P0.65-LS7.6-BL"	"1"	"TB6612FNG,C,8,EL"	"TOSHIBA(东芝)"	"LCSC"	"C141517"	"9.1"
"28"	"8MHz"	"X1"	"CRYSTAL-SMD_L5.0-W3.2"	"1"	"X50328MSB2GI"	"YXC(扬兴晶振)"	"LCSC"	"C115962"	"1.091"
"29"	"32.768kHz"	"X2"	"FC-135R_L3.2-W1.5"	"1"	"Q13FC1350000400"	"EPSON(爱普生)"	"LCSC"	"C32346"	"1.2826"
"30"	"SS34_C8678"	"D1"	"SMA_L4.3-W2.6-LS5.2-RD"	"1"	"SS34"	"MDD"	"LCSC"	"C8678"	"0.1481"
